DESeq / GSEA • Rubrary
…
BP: GO Biological Process ontology

CC: GO Cellular Component ontology

MF: GO Molecular Function ontology

H: hallmark gene sets [7]

if (!requireNamespace("msigdbr", quietly = TRUE)){
  BiocManager::install("msigdbr")
}

msigdbr::msigdbr_collections()
#> # A tibble: 23 × 3
#>    gs_cat gs_subcat         num_genesets
#>    <chr>  <chr>                    <int>
#>  1 C1     ""                         299
#>  2 C2     "CGP"                     3384
#>  3 C2     "CP"                        29
#>  4 C2     "CP:BIOCARTA"              292
#>  5 C2     "CP:KEGG"                  186
#>  6 C2     "CP:PID"                   196
#>  7 C2     "CP:REACTOME"             1615
#>  8 C2     "CP:WIKIPATHWAYS"          664
#>  9 C3     "MIR:MIRDB"               2377
#> 10 C3     "MIR:MIR_Legacy"           221
#> # ℹ 13 more rows
…
